,dimensions,walk_length,num_walks,p,q,window,min_count,adj_rand
0,2.0,80.0,10.0,1.0,1.0,10.0,1.0,0.0802919708029197
1,4.0,80.0,10.0,1.0,1.0,10.0,1.0,0.10236220472440946
2,8.0,80.0,10.0,1.0,1.0,10.0,1.0,0.23863636363636365
3,16.0,80.0,10.0,1.0,1.0,10.0,1.0,0.3619402985074627
4,32.0,80.0,10.0,1.0,1.0,10.0,1.0,0.30859375
5,64.0,80.0,10.0,1.0,1.0,10.0,1.0,0.47388059701492535
6,80.0,80.0,10.0,1.0,1.0,10.0,1.0,0.4107142857142857
7,90.0,80.0,10.0,1.0,1.0,10.0,1.0,0.3804347826086957
8,100.0,80.0,10.0,1.0,1.0,10.0,1.0,0.3868613138686131
9,110.0,80.0,10.0,1.0,1.0,10.0,1.0,0.5037593984962406
10,128.0,80.0,10.0,1.0,1.0,10.0,1.0,0.32142857142857145
11,256.0,80.0,10.0,1.0,1.0,10.0,1.0,0.2717391304347826
