,dimensions,walk_length,num_walks,p,q,window,min_count,seed,adj_rand
0,128.0,80.0,10.0,1.0,1.0,10.0,1.0,0.0,0.32142857142857145
1,128.0,80.0,10.0,1.0,1.0,10.0,1.0,1.0,0.32954545454545453
2,128.0,80.0,10.0,1.0,1.0,10.0,1.0,3.0,0.27307692307692305
3,128.0,80.0,10.0,1.0,1.0,10.0,1.0,4.0,0.25
4,128.0,80.0,10.0,1.0,1.0,10.0,1.0,7.0,0.3619402985074627
5,128.0,80.0,10.0,1.0,1.0,10.0,1.0,11.0,0.32954545454545453
6,128.0,80.0,10.0,1.0,1.0,10.0,1.0,18.0,0.32142857142857145
7,128.0,80.0,10.0,1.0,1.0,10.0,1.0,39.0,0.3023255813953488
