,dimensions,walk_length,num_walks,p,q,window,min_count,adj_rand
0,128.0,80.0,10.0,0.25,1.0,10.0,1.0,0.8928571428571429
1,128.0,80.0,10.0,0.5,1.0,10.0,1.0,0.4673913043478261
2,128.0,80.0,10.0,1.0,1.0,10.0,1.0,0.460431654676259
3,128.0,80.0,10.0,2.0,1.0,10.0,1.0,0.8928571428571429
4,128.0,80.0,10.0,4.0,1.0,10.0,1.0,0.375
