,dimensions,walk_length,num_walks,p,q,windddow,min_count,f1_micro,adj_rand,window
7,32.0,2.0,10.0,1.0,1.0,,1.0,0.06467661691542288,0.002420843903100915,10.0
8,32.0,4.0,10.0,1.0,1.0,,1.0,0.06368159203980099,0.00340653556552754,10.0
9,32.0,8.0,10.0,1.0,1.0,,1.0,0.11243781094527365,0.17752261627655797,10.0
10,32.0,16.0,10.0,1.0,1.0,,1.0,0.16119402985074627,0.24748383514239333,10.0
11,32.0,32.0,10.0,1.0,1.0,,1.0,0.4059701492537313,0.3505587331183099,10.0
12,32.0,64.0,10.0,1.0,1.0,,1.0,0.43582089552238806,0.36428891029802624,10.0
13,32.0,80.0,10.0,1.0,1.0,,1.0,0.382089552238806,0.35408774956043004,10.0
