,dimensions,walk_length,num_walks,p,q,window,min_count,adj_rand
0,128.0,80.0,10.0,1.0,1.0,2.0,1.0,0.6091549295774648
1,128.0,80.0,10.0,1.0,1.0,4.0,1.0,0.6122448979591837
2,128.0,80.0,10.0,1.0,1.0,6.0,1.0,0.5348837209302325
3,128.0,80.0,10.0,1.0,1.0,8.0,1.0,0.5037593984962406
4,128.0,80.0,10.0,1.0,1.0,10.0,1.0,0.6222222222222222
5,128.0,80.0,10.0,1.0,1.0,12.0,1.0,0.29927007299270075
6,128.0,80.0,10.0,1.0,1.0,14.0,1.0,0.7115384615384616
7,128.0,80.0,10.0,1.0,1.0,16.0,1.0,0.627906976744186
8,128.0,80.0,10.0,1.0,1.0,18.0,1.0,0.6091549295774648
9,128.0,80.0,10.0,1.0,1.0,20.0,1.0,0.5669014084507042
